<?xml version="1.0" encoding="UTF-8" standalone="no"?>
<!-- Created with Inkscape (http://www.inkscape.org/) -->

<svg
   width="24mm"
   height="24mm"
   viewBox="0 0 24 24"
   version="1.1"
   id="svg1052"
   xmlns="http://www.w3.org/2000/svg"
   xmlns:svg="http://www.w3.org/2000/svg">
  <defs
     id="defs1049" />
  <g
     id="layer1"
     transform="translate(-103.46809,-164.93617)">
    <rect
       style="fill:#000000;fill-opacity:1;stroke:none;stroke-width:0.302;stroke-miterlimit:4;stroke-dasharray:none"
       id="rect9462"
       width="24"
       height="24"
       x="103.46809"
       y="164.93617" />
    <path
       id="path9464"
       style="stroke:#fd0100;stroke-width:2"
       d="m 115.46809,171.43617 c 0,0 5.5,4.4051 5.5,11 h -11 c 0.17365,-7.74077 5.5,-11 5.5,-11 z" />
  </g>
</svg>
